<?xml version="1.0" encoding="utf-8"?>
<!-- Generator: Adobe Illustrator 21.1.0, SVG Export Plug-In . SVG Version: 6.00 Build 0)  -->
<svg version="1.1" id="Layer_1" xmlns="http://www.w3.org/2000/svg" xmlns:xlink="http://www.w3.org/1999/xlink" x="0px" y="0px"
	 viewBox="0 0 500 500" style="enable-background:new 0 0 500 500;" xml:space="preserve">
<style type="text/css">
	.st0{fill:#6D6E71;}
	.st1{fill:#3DB3C0;}
</style>
<g>
	<path class="st0" d="M202.3,411.2c0.7,0.1,1.1,0.5,1.2,1c0.1,0.5,0.1,1,0,1.6c-0.9,2.7-1.7,5.3-2.3,8c-0.6,2.7-1.4,5.5-2.3,8.3
		c-1.3,3.7-2.5,6.6-3.7,8.7c-1.2,2.1-2.4,3.5-3.6,4.2c-0.1,0.1-0.3,0.2-0.4,0.3c-1.6,0.3-3.1,0.1-4.5-0.6c-1.2-0.6-2.3-1.9-3.4-3.6
		s-1.7-4.6-2-8.4c0-0.3,0-1.1,0-2.2c0-1.1,0-2.4,0-3.9c0-1.5,0-3.1,0-4.8c0-1.7-0.1-3.2-0.1-4.7c0-1.4-0.1-3-0.1-4.9
		c-1,1.1-1.9,2-2.5,2.7c-0.6,0.7-1.2,1.4-1.8,2c-0.6,0.6-0.9,1-1.1,1.2c-0.3,3-0.5,5.3-0.6,6.9c-0.1,1.6-0.2,2.9-0.3,3.7
		c-0.2,1.9-0.4,3.3-0.5,4.3c-0.1,1-0.3,1.6-0.4,1.9c-0.1,0.3-0.3,0.6-0.6,0.8c-0.3,0.2-0.5,0.3-0.6,0.1c-0.1,0-0.2,0.1-0.3,0.2
		c-0.1,0.4-0.3,0.4-0.6,0.1c-0.3-0.3-0.5-0.3-0.6,0c-0.3,0.4-0.6,0.5-1.1,0.2c-0.5-0.3-0.9-0.4-1.2-0.4c-0.8,0-1.6-0.6-2.2-1.8
		c-0.6-1.2-1.2-2.7-1.7-4.4c-0.5-1.7-0.9-3.4-1.2-5.1c-0.3-1.7-0.5-3-0.5-3.9c-0.1-0.5-0.1-0.9-0.1-1.4c0-0.5-0.1-0.9-0.1-1.5
		c0-0.5-0.1-1.1-0.1-1.8c0-0.7-0.1-1.6-0.1-2.6c0-0.6,0-1.4,0-2.4c0-1,0-2.2,0.1-3.4c0.1-1.2,0.1-2.4,0.2-3.7
		c0.1-1.3,0.2-2.4,0.3-3.5c0.5-4.9,1-8.6,1.6-11.1c0.5-2.5,1.2-4.3,2-5.4c0.3-0.5,0.7-0.9,1-1.2c0.4-0.3,0.6-0.4,0.6-0.2
		c0.1,0.2,0.2,0.2,0.4-0.1c0.1-0.3,0.3-0.4,0.5-0.4c0.1,0,0.1,0.2,0,0.5c-0.4,0.7-0.8,2.8-1.3,6.1c-0.1,1.2-0.3,2.6-0.4,4.2
		c-0.2,1.6-0.3,3.1-0.5,4.5c-0.2,1.5-0.3,2.7-0.3,3.8c-0.1,1.1-0.1,1.7-0.1,2c0,0.5,0,0.6,0.1,0.3c0.4-3.7,0.7-6.7,1-9
		c0.3-2.3,0.5-4.2,0.7-5.7c0.2-1.5,0.5-2.7,0.7-3.5c0.2-0.8,0.5-1.6,0.7-2.2c0.2-0.6,0.4-1,0.6-1c0.1,0,0.2,0,0.2,0.1
		c0,0.2,0.1,0.2,0.3,0c0.2-0.1,0.3,0,0.4,0.2c0.1,0.3,0.2,0.5,0.2,0.7s0.1,0.1,0.3-0.2l0.3-0.5l0.6,0.5c0.3,0.3,0.6,0.7,1,1.3
		c0.3,0.6,0.6,1.3,0.8,2c0.1,0.6,0.2,1.7,0.3,3.4s0.1,3.3,0,5l0.3-0.6c1-2.1,2.2-4.3,3.6-6.4c1.4-2.1,3.2-3.7,5.6-4.7
		c0.6-0.2,1.3-0.4,2-0.5c0.8-0.1,1.4-0.2,1.8-0.1c1.6,0.3,2.8,0.9,3.5,1.6c0.7,0.7,1.2,1.9,1.4,3.5c0.2,1.8,0.1,3.6-0.3,5.4
		c-0.4,1.9-1.2,4-2.4,6.2c-0.7,1.4-1.6,2.9-2.7,4.5c-1.1,1.6-2.4,3.4-4.1,5.5c-0.1,0.1,0.2,0.2,0.9,0.5c1.8,0.5,3.1,1.6,3.8,3.3
		c0.3,0.6,0.5,1.2,0.6,1.8c0.2,0.6,0.3,1.5,0.4,2.5c0.1,1,0.2,2.4,0.2,3.9c0.1,1.6,0.1,3.6,0.1,6c0.1,2.2,0.1,4.4,0.1,6.6
		c0,2.2,0.3,4.4,0.8,6.6c0.5-0.6,1-1.7,1.7-3s1.5-3.3,2.4-5.8c0.9-2.7,1.7-5.3,2.4-8.1c0.7-2.7,1.5-5.5,2.3-8.5c0-0.1,0-0.2,0.1-0.4
		s0.3-0.4,0.5-0.6c0.2-0.2,0.5-0.4,0.9-0.5C201.4,411.2,201.8,411.2,202.3,411.2z M175.2,406.3c0.5-3.2,1-6,1.6-8.3
		c0.6-2.3,1.4-4.5,2.3-6.6l0.2-0.6c-0.3,0.6-0.6,1.2-0.8,1.6c-0.2,0.4-0.5,0.9-0.7,1.4c-0.2,0.5-0.4,0.9-0.5,1.3
		c-0.4,1-0.8,2.5-1.2,4.5c-0.4,2-0.8,4.3-1.2,7c-0.1,0.7-0.2,1.3-0.2,1.8c0,0.5,0,0.8,0,0.8l0.1-0.1c0-0.1,0-0.4,0.1-0.9
		C175,407.7,175.1,407.1,175.2,406.3z M176.8,406.8c0.8-1,1.4-1.9,1.9-2.6c0.5-0.7,1-1.4,1.6-2.1c0.5-0.7,0.9-1.3,1.3-1.8
		c1.2-1.8,2.2-3.5,2.9-5.1c0.7-1.6,1.5-3.5,2.2-5.8c0.3-0.7,0.5-1.6,0.8-2.8c0.3-1.1,0.1-2.2-0.4-3.3c-1.8,1.4-3.2,2.9-4.3,4.6
		c-1.1,1.7-2.1,3.6-2.9,5.5c-0.8,2-1.4,4.1-1.8,6.2c-0.5,2.2-0.9,4.4-1.3,6.6C176.6,406.6,176.6,406.8,176.8,406.8z M189.2,386.6
		c0,0.3-0.1,0.8-0.4,1.7c-0.3,0.8-0.5,1.8-0.8,2.7c-0.3,1-0.6,1.9-0.9,2.9c-0.3,0.9-0.6,1.6-0.8,2.1c-0.3,0.7-0.4,0.9-0.2,0.6
		c0.2-0.3,0.6-0.9,1.1-1.9c1-2.2,1.7-4.2,2-5.9c0.1-0.3,0.1-0.7,0.1-1c0-0.4,0-0.6,0-0.8C189.3,386.7,189.3,386.6,189.2,386.6
		C189.2,386.5,189.2,386.5,189.2,386.6z"/>
	<path class="st0" d="M230.7,411.3c0.5,0.1,0.9,0.5,1.2,1c0.3,0.5,0.3,1.1,0.1,1.7c0,0.1-0.1,0.5-0.4,1.2c-0.3,0.7-0.6,1.6-1.1,2.7
		c-0.5,1.1-1,2.4-1.7,3.8c-0.7,1.4-1.4,2.9-2.2,4.4c-2.2,3.9-4.4,6.9-6.6,9c-2.2,2.1-4.4,3.3-6.7,3.5c-3.2-0.2-5.8-1.1-7.9-2.6
		c-2.1-1.6-3.7-3.5-4.8-5.9c-1.1-2.4-1.8-5.1-2-8c-0.2-2.9-0.1-5.9,0.4-8.8c0.5-2.9,1.3-5.8,2.4-8.4c1.1-2.7,2.4-4.9,4-6.7
		c1.6-1.9,3.5-3.4,5.6-4.5c2.1-1.1,4.5-1.3,7.1-0.6c1.1,0.3,2,0.9,2.6,1.7c0.6,0.8,0.9,1.7,0.9,2.6c0,1.3-0.4,2.8-1.3,4.6
		c-0.9,1.8-2.1,3.5-3.5,5.3c-1.2,1.4-2.2,2.4-3,3.3c-0.8,0.8-1.5,1.5-2,2c-0.5,0.6-0.9,1-1.2,1.4c-0.3,0.4-0.4,0.8-0.4,1.3
		c0,1.4,0,2.8,0,4.3c0,1.5,0,3,0,4.4c0,1.4,0,2.8,0.1,4c0.1,1.3,0.2,2.3,0.5,3.1c0.2,0.7,0.5,1.5,0.9,2.2c0.4,0.8,0.7,1.2,1,1.4
		c0.8,0.4,1.7,0.1,2.8-0.7c1.1-0.9,2.1-1.9,3.2-3.2c1-1.3,2-2.5,2.8-3.8c0.8-1.3,1.3-2.1,1.6-2.6c0.8-1.4,1.5-2.8,2.1-4.2
		c0.6-1.4,1.2-2.6,1.6-3.6c0.4-1.1,0.9-2.3,1.4-3.6c0.2-0.5,0.6-0.9,1.1-1.2C229.6,411.2,230.2,411.1,230.7,411.3z M201.1,413.6
		c-0.1,1.2-0.2,2.3-0.1,3.2c0,0.9,0.1,1.2,0.2,1.1c0.1-0.1,0.1-0.5,0.1-1.4c0-0.9,0.1-1.6,0.2-2.1c0.4-1.7,0.9-3.6,1.6-5.6
		c0.7-2.1,1.3-3.8,2-5.3c0.5-1,0.3-0.8-0.5,0.5C202.7,407.4,201.5,410.7,201.1,413.6z M205.8,408c-0.1,0.3-0.3,0.8-0.4,1.3
		c-0.1,0.6-0.2,1.1-0.3,1.7s-0.2,1-0.2,1.4c-0.1,0.4-0.1,0.6-0.1,0.7c0.3,0.3,0.7-0.6,1.3-2.5c0.2-0.6,0.4-1.2,0.6-2
		c0.2-0.7,0.5-1.5,0.7-2.2c0.2-0.7,0.4-1.4,0.6-1.9c0.2-0.6,0.4-1,0.5-1.4c0.5-1.2,0.3-1-0.5,0.4C207.1,404.9,206.4,406.4,205.8,408
		z M210.2,406.3c-0.2,0.7-0.4,1.3-0.5,1.8c-0.1,0.5-0.2,0.7-0.2,0.8c0.3-0.3,0.9-0.9,1.9-2c1-1.1,2-2.3,3-3.6c1-1.3,1.7-2.6,2.2-3.9
		c0.5-1.3,0.5-2.3-0.2-3c-0.1-0.1-0.2-0.2-0.3-0.1c-0.1,0-0.4,0.3-0.8,0.7c-1,1-1.9,2.4-2.8,4.1
		C211.6,402.6,210.9,404.4,210.2,406.3z"/>
	<path class="st0" d="M257.7,411c0.6,0.1,1.1,0.4,1.4,0.9c0.4,0.5,0.5,1,0.3,1.5c0,0.1-0.1,0.5-0.2,1.4c-0.2,0.8-0.4,1.9-0.7,3.3
		c-0.3,1.4-0.6,2.9-1.1,4.7c-0.4,1.8-0.9,3.6-1.4,5.4c-0.6,2.3-1.3,4.3-1.9,6.1c-0.6,1.8-1.3,3.5-2,5c-1.9,4-3.8,6.6-5.7,7.7
		c-0.9,0.5-1.8,0.8-2.7,0.8c-1,0-1.9-0.2-2.9-0.6c-1-0.4-1.9-1-2.8-1.7c-2.6-1.9-4.7-5.1-6.3-9.4c-1.6-4.3-2.7-9.7-3.2-15.9
		c-0.1-1.8-0.2-4.3-0.3-7.3c-0.1-3.1,0-6.4,0.3-10c0.3-3.6,1-7.3,2.1-11.2c1.1-3.9,2.8-7.5,5.2-10.9c1-1,2.6-1.4,4.9-1.4
		c1.8,0.3,3.2,1,4.3,2.1c1.1,1.1,2,2.5,2.6,4.1c0.6,1.6,1,3.3,1.1,5.1c0.1,1.8,0.1,3.4-0.2,4.9c-0.2,1.3-0.5,2.6-1,4
		c-0.5,1.4-1,2.8-1.7,4.4c-0.7,1.6-1.5,3.2-2.6,5c-1,1.8-2.2,3.8-3.6,6l-1,1.5c0,1.4,0,2.9,0.1,4.4c0.1,1.5,0.1,2.9,0.1,4.2
		c0,1.3,0.1,2.5,0.1,3.5c0.1,1,0.1,1.8,0.2,2.3c0.1,1.1,0.3,2.4,0.6,3.8c0.3,1.4,0.6,2.6,0.9,3.5c0.1,0.5,0.3,1,0.6,1.6
		c0.3,0.6,0.5,1.1,0.7,1.7c0.2,0.5,0.5,1,0.7,1.4c0.2,0.4,0.4,0.7,0.5,0.7c0.3,0.3,0.6,0.3,1.1,0c0.3-0.1,0.6-0.5,1.1-1
		c0.5-0.5,1.1-1.4,1.7-2.6c0.6-1.2,1.4-2.8,2.2-4.8c0.8-2,1.7-4.6,2.6-7.9c0.5-1.8,1-3.6,1.4-5.3c0.4-1.7,0.7-3.2,1-4.6
		c0.3-1.3,0.6-2.8,0.9-4.4c0.1-0.6,0.4-1.1,0.9-1.4C256.6,411,257.1,410.9,257.7,411z M238.2,410.6l0.6-1.1c0.6-0.9,1.2-1.9,1.7-3
		c0.6-1.1,1.1-2.2,1.6-3.3c0.5-1.1,0.9-2.2,1.3-3.2c0.4-1,0.7-1.9,0.9-2.7c0.6-1.9,0.9-4,0.9-6.4c0-2.4-0.6-4.5-1.8-6.4
		c-0.3-0.5-0.6-0.8-0.9-1.1c-0.3-0.3-0.6-0.1-1,0.6c-0.7,1.2-1.3,3-1.8,5.4c-0.5,2.4-0.9,5-1.1,7.9c-0.1,1.5-0.2,3.1-0.3,4.9
		c-0.1,1.8-0.1,3.2-0.1,4.4v2.9V410.6z M238.6,412.4c0.2-0.3,0.5-0.7,0.9-1.5c1.2-2,2.3-3.9,3.1-5.5c0.8-1.7,1.5-3.2,2-4.6
		c0.1-0.2,0.1-0.4,0.2-0.5c0.1-0.2,0.1-0.3,0.2-0.4c0.1-0.2,0.1-0.4,0.1-0.5c-0.1,0-0.4,0.6-0.9,1.7c-0.5,1.2-1,2.4-1.6,3.6
		c-0.6,1.2-1.4,2.8-2.5,4.7c-0.8,1.3-1.3,2.2-1.5,2.7V412.4z M238.6,414.3c0.3-0.4,0.9-1.3,1.7-2.6c0.8-1.4,1.6-2.8,2.5-4.3
		c0.3-0.7,0.7-1.5,1.2-2.4c0.5-0.9,0.8-1.7,1.2-2.4c0.1-0.3,0.2-0.6,0.3-1c0.1-0.3,0.2-0.6,0.3-0.9c0.1-0.3,0.2-0.5,0.3-0.8
		c-0.1,0.1-0.1,0.2-0.2,0.3c-0.1,0.1-0.2,0.4-0.3,0.8c-0.3,0.6-0.6,1.4-1.1,2.4c-0.5,0.9-1,1.9-1.6,3c-0.6,1.1-1.2,2.2-1.8,3.3
		c-0.6,1.1-1.3,2.2-1.9,3.3c-0.1,0.2-0.2,0.4-0.3,0.6c-0.1,0.2-0.2,0.4-0.2,0.5V414.3z"/>
	<path class="st0" d="M294.9,411.2c0.6,0.1,1,0.4,1.3,0.9c0.3,0.5,0.4,1,0.2,1.6c0,0.1-0.1,0.4-0.3,1.1s-0.5,1.6-0.8,2.7
		c-0.4,1.1-0.7,2.4-1.2,3.9c-0.4,1.5-0.8,3-1.2,4.7c-0.9,3.6-2,6.5-3.2,8.7c-1.2,2.2-2.5,3.8-3.9,4.8c-1.4,1-2.9,1.5-4.5,1.4
		c-1.6-0.1-3.3-0.6-5-1.5c-0.8-0.4-1.4-0.9-1.9-1.6s-0.9-1.6-1.3-2.7c-0.4-1.1-0.7-2.5-1.1-4.1c-0.3-1.6-0.6-3.6-1-5.9l-0.5,1.3
		c-0.3,0.8-0.7,1.7-1.1,2.4c-0.4,0.8-1.1,1.6-2,2.3c-0.6,0.5-1.3,0.8-1.9,1c-0.6,0.1-1.4,0.2-2.3,0.3c-0.6,0-1.2,0-1.5,0
		c-0.4,0-0.7-0.1-1-0.2c-0.8-0.3-1.4-0.5-1.9-0.8c-0.5-0.3-1-0.7-1.4-1.1c-1.2-1.2-2.1-3-2.6-5.4c-0.5-2.5-0.6-5.1-0.5-7.9
		c0.2-2.8,0.7-5.6,1.5-8.4c0.8-2.8,2-5.1,3.4-7c1.7-2.2,3.8-4,6.2-5.5c2.5-1.5,4.9-2.3,7.4-2.6c3-0.4,5.6-0.2,7.8,0.7
		c0.7,0.3,1.3,0.5,1.7,0.7c0.4,0.2,0.8,0.5,1.2,1c0.2,0.3,0.4,0.3,0.6,0.1c0.1-0.1,0.4,0,0.9,0.3s0.8,0.8,1,1.3
		c0.3,0.5,0.5,1.2,0.7,2c0.1,0.8,0.1,1.7,0,2.4c0,0.7-0.1,1.8-0.4,3.3c-0.3,1.5-0.6,3.1-0.9,4.9c-0.4,1.8-0.7,3.7-1.2,5.7
		c-0.4,2-0.8,3.9-1.2,5.8c-0.4,1.8-0.7,3.5-0.9,5.1c-0.3,1.5-0.4,2.7-0.4,3.5c-0.1,1.2-0.2,2.2-0.1,3.1c0,0.9,0.2,1.5,0.5,1.8
		c0.2,0.3,0.4,0.3,0.7,0.2c0.3-0.1,0.6-0.3,0.9-0.5c0.3-0.2,0.6-0.5,0.8-0.8c0.3-0.3,0.5-0.6,0.7-0.9c0.6-1,1.1-2.1,1.7-3.2
		c0.5-1.1,1.2-2.8,1.9-5.1c0.5-1.6,1-3,1.4-4.5c0.4-1.4,0.8-2.7,1.1-3.8c0.3-1.1,0.6-2.3,0.9-3.7c0.1-0.6,0.4-1,0.9-1.3
		C293.8,411.2,294.3,411.1,294.9,411.2z M260.8,407.2c0.4-1,0.5-1.5,0.4-1.5c-0.1,0-0.4,0.6-1,1.7c-0.7,1.2-1.2,2.4-1.5,3.4
		c-0.3,1-0.5,2.5-0.5,4.5c-0.1,1.1,0,1.6,0.1,1.6c0.1-0.3,0.2-0.5,0.2-0.7c0-0.3,0.1-0.8,0.2-1.5c0.2-0.7,0.4-1.6,0.6-2.5
		c0.2-0.9,0.5-1.8,0.8-2.7C260.4,408.5,260.6,407.7,260.8,407.2z M262.3,415.2c0.3-1.4,0.7-3,1.3-4.6c0.6-1.7,1-3.1,1.4-4.4
		c-0.4,0-0.8,0.4-1.1,1.3c-0.4,0.8-0.7,1.8-1,2.9c-0.3,1.1-0.5,2.1-0.7,3.1c-0.2,1-0.3,1.6-0.3,1.9c-0.1,1.4-0.2,2.1-0.1,2.1
		C261.8,417.5,262,416.7,262.3,415.2z M266,425.4c0.4-0.5,0.8-1.3,1.4-2.3c0.5-1,1.1-2.2,1.6-3.4c0.5-1.2,1.1-2.4,1.6-3.5
		c0.5-1.2,1-2.2,1.5-3.1c0.6-1,1-2.1,1.3-3.2c0.3-1.1,0.5-2.2,0.7-3.4c0.2-1.2,0.5-2.3,0.8-3.5s0.8-2.3,1.4-3.4
		c0.1-0.1,0-0.2-0.3-0.1c-0.3,0-0.6,0.1-0.9,0.3c-1.3,0.7-2.4,1.6-3.4,2.6c-1,1-1.9,2.3-2.7,3.8c-0.3,0.6-0.7,1.3-1,2.3
		c-0.4,0.9-0.7,1.9-1.1,2.9c-0.4,1-0.7,2-0.9,3.1c-0.3,1.1-0.5,2-0.6,2.9c-0.1,0.4-0.1,1-0.1,1.8c0,0.8,0,1.7,0,2.6
		c0,0.9,0,1.7,0,2.5c0,0.7,0,1.2,0.1,1.5l0.1,0.5L266,425.4z M282.3,403.6c-0.3,1.6-0.7,3.4-1.1,5.6c-0.4,2.2-0.7,4.3-1,6.5
		c-0.3,2.1-0.5,4.1-0.7,5.8c-0.2,1.8-0.3,3-0.3,3.7c0,0.5,0,0.6,0.1,0.3c0.1-1.2,0.3-2.5,0.5-4.1c0.2-1.6,0.5-3.2,0.7-4.8
		c0.3-1.7,0.5-3.3,0.9-4.9c0.3-1.6,0.6-3.1,1-4.5c0.1-0.8,0.3-1.6,0.4-2.4c0.2-0.8,0.3-1.5,0.4-1.8c0.1-0.4,0.1-0.7,0.1-1
		s0-0.5,0-0.5c-0.1-0.1-0.3,0.1-0.5,0.6C282.6,402.4,282.4,403,282.3,403.6z"/>
	<path class="st0" d="M328,411.1c0.6,0.1,1.1,0.4,1.4,0.9c0.4,0.5,0.5,1,0.3,1.5c0,0.1-0.1,0.6-0.3,1.6c-0.2,0.9-0.5,2.1-0.8,3.5
		c-0.3,1.4-0.7,3-1.1,4.9c-0.4,1.8-0.9,3.7-1.5,5.6c-1.1,3.7-2.2,6.8-3.4,9.4s-2.5,4.5-3.9,5.7c-1.5,1.3-3.1,1.8-5,1.7
		c-1.8-0.2-4-1.1-6.6-2.9c-1.1-0.7-2.3-1.9-3.7-3.5c-1.4-1.6-2.7-3.5-3.9-5.7c-0.5,1.4-0.8,2.6-1.1,3.5c-0.3,0.9-0.5,1.6-0.7,2.2
		c-0.2,0.6-0.4,0.9-0.5,1.2c-0.1,0.2-0.2,0.4-0.3,0.5c-0.3,0.3-0.5,0.4-0.6,0.2c-0.1-0.1-0.2-0.1-0.2,0.1c0,0.2-0.1,0.3-0.3,0.3
		c-0.1,0,0-0.2,0-0.7c0.1-0.5,0.2-1.1,0.4-1.9c0.2-0.8,0.4-1.7,0.6-2.6c0.2-1,0.5-1.9,0.8-2.9c0.4-1.4,0.5-2.2,0.5-2.4
		c-0.1-0.2-0.2-0.3-0.3-0.2c0,0.1-0.1,0.4-0.2,0.9c-0.2,0.5-0.3,1.1-0.5,1.8c-0.2,0.7-0.3,1.4-0.5,2.1c-0.2,0.7-0.3,1.4-0.4,2
		c-0.3,1.5-0.6,2.5-0.8,3.2s-0.4,0.9-0.7,0.9c-0.3,0-0.4-0.2-0.5-0.6l-0.2-0.5v0.3c0,0.6-0.2,0.7-0.6,0.3c-0.6-0.5-0.9-1.5-0.8-3.1
		c0.1-1.5,0.3-3.2,0.7-4.9c0.4-1.8,0.8-3.4,1.4-5.1c0.5-1.6,0.9-2.8,1.1-3.5c-0.5-1.6-1-3.4-1.5-5.5c-0.6-2.1-1-4-1.3-5.4
		c-0.3-0.9-0.5-2-0.8-3.2c-0.3-1.2-0.5-2.2-0.7-3c-0.1-0.5-0.3-1.2-0.6-2.3c-0.3-1.1-0.5-2.3-0.6-3.5c-0.2-1.2-0.2-2.3-0.1-3.5
		c0.1-1.1,0.4-1.8,1-2.2c0.3-0.2,0.5-0.2,0.6-0.1c0.1,0.1,0.3,0.1,0.4-0.2c0.3-0.5,0.5-0.5,0.9-0.2c0.1,0.3,0.3,0.3,0.5,0
		c0.1-0.3,0.5-0.4,1-0.3c2.4,0.5,4.3,1.5,5.6,3.3c1.4,1.7,2.4,3.8,3.2,6.3c0.1,0.3,0.2,0.6,0.2,0.9c0,0.3,0.1,0.5,0.2,0.7
		c0.1,0.3,0.2,0.5,0.3,0.7c0.2,0,0.5-0.3,1.1-0.9c0.5-0.6,1.1-1.3,1.8-2c0.7-0.7,1.3-1.5,2-2.1c0.6-0.7,1.2-1.1,1.6-1.2
		c0.4-0.1,0.6-0.2,0.6-0.2c0,0,0,0.2,0,0.5l-0.1,0.5l0.4-0.6c0.3-0.3,0.6-0.5,0.8-0.5c0.3,0,0.4,0,0.4,0.1c0,0.1-0.1,0.3-0.2,0.7
		c-0.1,0.1-0.2,0.3-0.2,0.6c0,0.3-0.1,0.5-0.1,0.6c-0.1,0.3-0.1,0.5,0,0.5c0,0,0.1-0.1,0.2-0.2c0.1-0.3,0.3-0.6,0.4-1.2
		c0.1-0.6,0.3-0.9,0.4-0.9c0-0.1,0.2,0,0.6,0.4c0.3,0.2,0.4,0.6,0.4,1.2c-0.6,1.9-1.6,4.1-3.2,6.3c-1.5,2.3-2.9,4.7-4.2,7.4l1.7,5.4
		c0.1,0.5,0.4,1.2,0.7,2.3c0.4,1.1,0.8,2.3,1.2,3.6c0.5,1.3,0.9,2.7,1.5,4.1c0.5,1.4,1,2.7,1.5,3.9c0.5,1.2,1,2.2,1.5,3.1
		c0.5,0.9,0.9,1.4,1.3,1.6c0.3,0,0.5-0.2,0.9-0.5c0.2-0.2,0.4-0.4,0.5-0.6c0.6-0.9,1.3-2.2,2-4c0.8-1.8,1.6-4.2,2.5-7.3
		c0.5-1.9,1-3.7,1.5-5.5c0.5-1.8,0.8-3.4,1.2-4.8c0.3-1.7,0.6-3.3,1-4.8c0.1-0.6,0.4-1.1,0.9-1.4C326.9,411.1,327.4,411,328,411.1z
		 M295,437.3c0.1-0.5,0.2-1.2,0.5-2c0.3-0.8,0.6-1.7,0.9-2.6c0.3-0.9,0.5-1.8,0.7-2.6c0.2-0.8,0.2-1.4,0-1.8
		c-0.1-0.1-0.2-0.2-0.3-0.2c-0.1,0.1-0.2,0.5-0.3,1.1c-0.2,0.6-0.3,1.2-0.5,2c-0.2,0.7-0.4,1.5-0.6,2.3c-0.2,0.8-0.3,1.4-0.4,1.9
		c-0.3,1.3-0.5,2.3-0.5,2.9c0.1,0.4,0.1,0.5,0.1,0.4C294.7,438.5,294.8,438.1,295,437.3z"/>
	<path class="st0" d="M357,411.3c0.5,0.1,0.9,0.5,1.2,1c0.3,0.5,0.3,1.1,0.1,1.7c0,0.1-0.1,0.5-0.4,1.2c-0.3,0.7-0.6,1.6-1.1,2.7
		c-0.5,1.1-1,2.4-1.7,3.8c-0.7,1.4-1.4,2.9-2.2,4.4c-2.2,3.9-4.4,6.9-6.6,9c-2.2,2.1-4.4,3.3-6.7,3.5c-3.2-0.2-5.8-1.1-7.9-2.6
		c-2.1-1.6-3.7-3.5-4.8-5.9c-1.1-2.4-1.8-5.1-2-8c-0.2-2.9-0.1-5.9,0.4-8.8c0.5-2.9,1.3-5.8,2.4-8.4c1.1-2.7,2.4-4.9,4-6.7
		c1.6-1.9,3.5-3.4,5.6-4.5c2.1-1.1,4.5-1.3,7.1-0.6c1.1,0.3,2,0.9,2.6,1.7c0.6,0.8,0.9,1.7,0.9,2.6c0,1.3-0.4,2.8-1.3,4.6
		c-0.9,1.8-2.1,3.5-3.5,5.3c-1.2,1.4-2.2,2.4-3,3.3c-0.8,0.8-1.5,1.5-2,2c-0.5,0.6-0.9,1-1.2,1.4c-0.3,0.4-0.4,0.8-0.4,1.3
		c0,1.4,0,2.8,0,4.3c0,1.5,0,3,0,4.4c0,1.4,0,2.8,0.1,4c0.1,1.3,0.2,2.3,0.5,3.1c0.2,0.7,0.5,1.5,0.9,2.2c0.4,0.8,0.7,1.2,1,1.4
		c0.8,0.4,1.7,0.1,2.8-0.7c1.1-0.9,2.1-1.9,3.2-3.2c1-1.3,2-2.5,2.8-3.8c0.8-1.3,1.3-2.1,1.6-2.6c0.8-1.4,1.5-2.8,2.1-4.2
		c0.6-1.4,1.2-2.6,1.6-3.6c0.4-1.1,0.9-2.3,1.4-3.6c0.2-0.5,0.5-0.9,1.1-1.2C355.8,411.2,356.4,411.1,357,411.3z M327.3,413.6
		c-0.1,1.2-0.2,2.3-0.1,3.2c0,0.9,0.1,1.2,0.2,1.1c0.1-0.1,0.1-0.5,0.1-1.4c0-0.9,0.1-1.6,0.2-2.1c0.4-1.7,0.9-3.6,1.6-5.6
		c0.7-2.1,1.3-3.8,2-5.3c0.5-1,0.3-0.8-0.5,0.5C328.9,407.4,327.7,410.7,327.3,413.6z M332.1,408c-0.1,0.3-0.3,0.8-0.4,1.3
		c-0.1,0.6-0.2,1.1-0.3,1.7c-0.1,0.6-0.2,1-0.2,1.4c-0.1,0.4-0.1,0.6-0.1,0.7c0.3,0.3,0.7-0.6,1.3-2.5c0.2-0.6,0.4-1.2,0.6-2
		c0.2-0.7,0.5-1.5,0.7-2.2c0.2-0.7,0.4-1.4,0.6-1.9c0.2-0.6,0.4-1,0.5-1.4c0.5-1.2,0.3-1-0.5,0.4C333.4,404.9,332.7,406.4,332.1,408
		z M336.5,406.3c-0.2,0.7-0.4,1.3-0.5,1.8c-0.1,0.5-0.2,0.7-0.2,0.8c0.3-0.3,0.9-0.9,1.9-2c1-1.1,2-2.3,3-3.6c1-1.3,1.7-2.6,2.2-3.9
		c0.5-1.3,0.5-2.3-0.2-3c-0.1-0.1-0.2-0.2-0.3-0.1c-0.1,0-0.4,0.3-0.8,0.7c-1,1-1.9,2.4-2.8,4.1
		C337.9,402.6,337.1,404.4,336.5,406.3z"/>
</g>
<path class="st1" d="M237.7,315.1C237.7,315.3,237.9,315.3,237.7,315.1L237.7,315.1z M240.6,301.6c-1.7,3.8-4,7.4-5,11.6
	c-0.2,0.9-0.5,2.3,0.4,2.9c0.6,0.4,1.4,0.2,1.6-0.5c0.1-0.2,0-0.4-0.2-0.6c0.1,0.1,0.1,0.1,0.2,0.2c0-0.1,0-0.2,0.1-0.3
	c0.2-0.4,0.2-1.1,0.3-1.5c0.2-0.8,0.6-1.5,0.9-2.3c0.9-3,2.1-5.8,3.3-8.7C242.6,301.3,241,300.7,240.6,301.6z M273.1,112.3
	c0.9-0.7,1.3-1.4,1.5-2.5c0.1-0.5-0.4-0.8-0.8-0.5c0,0,0,0,0,0c1.1-3.9,4.2-7.1,5.3-11c0.3-1-1.2-1.3-1.5-0.4
	c-1.7,4.8-6.2,8.2-6.4,13.6C271.2,112.6,272.4,112.9,273.1,112.3z M248.5,112.4c1.6,0.6,2.2-1.4,2.4-2.5c0.1-0.5-0.5-0.9-0.9-0.5
	c-1.2,1.5-0.9-0.2-0.9-1.4c0-2,0.7-4.2,1.2-6.1c1-3.8,2.3-7.5,3.8-11.1c0.4-0.9-1-1.8-1.4-0.8c-1.4,3.1-2.7,6.2-3.7,9.4
	c-0.9,2.9-2.3,6.2-2.1,9.3C247,109.8,247.2,111.9,248.5,112.4z M254.2,113c0.2,1,1.6,1.1,2.1,0.3c0.5-0.7,0.9-1.4,1.3-2.1
	c0.2-0.5-0.2-1-0.7-0.7c-0.3,0.1-0.5,0.3-0.7,0.4c-0.7-6,3.6-11.9,5.4-17.3c0.3-1-1.2-1.4-1.6-0.4C257.7,99.5,252.6,105.9,254.2,113
	z M249.6,303c-2,5-4.6,9.8-5.8,15.1c-0.3,1.2,1.1,2,2.1,1.2c0.7-0.6,0.7-1.1,0.9-1.9c0-0.2,0-0.3-0.1-0.4c1.3-4.6,3.1-8.9,4.7-13.4
	C251.8,302.3,250,301.9,249.6,303z M294.4,192.7c-1.9,4.5-5.6,8.4-8.2,12.5c-2.4,3.9-5.1,7.9-6.4,12.3c-0.1,0.5,0.5,0.7,0.7,0.3
	c3-4.1,5.4-8.9,7.9-13.3c2.2-3.9,5.2-7.5,6.6-11.7C295.3,192.5,294.6,192.3,294.4,192.7z M277.7,258c4.5-9.2,10.1-17.8,15.5-26.5
	c0.6-1-1-1.9-1.6-0.9c-3.1,4.9-6,9.9-9.1,14.8c-2.3,3.6-6,7.9-5.8,12.4C276.6,258.2,277.4,258.5,277.7,258z M363.7,275.1
	c-0.8,1.9-2.4,3.2-3.4,4.9c-0.2,0.3-0.1,0.8,0.1,1.1c0.1,0.1,0.2,0.2,0.4,0.2c0.3,0.1,0.7,0,0.9-0.2c1.4-1.7,2.9-3.5,3.6-5.6
	C365.7,274.5,364.1,274.1,363.7,275.1z M292.9,241.9c-2.8,3.5-5,7.3-7.2,11.1c-2.1,3.8-5.2,7.7-6.7,11.8c-0.2,0.5,0.5,1,0.9,0.7
	c3.2-2.4,4.9-6.6,6.8-10.1c2.3-4.2,4.5-8.5,7.5-12.3C294.9,242.3,293.6,241,292.9,241.9z M311.9,336.6c0-1-1.5-1-1.5,0
	c-0.2,2.8-2.7,6.6-0.7,9.2c0.2,0.3,0.5,0.4,0.8,0.3c0.5-0.1,0.5-0.5,0.5-0.9c0-0.4-0.3-0.9-0.4-1.4c0-0.5,0-1,0.1-1.5
	C311,340.4,311.8,338.5,311.9,336.6z M257.6,304c-0.8,1.8-10.9,20.3-5.9,20.5c0.3,0,0.5-0.2,0.6-0.5c0.4-1.1,0.3-2.4,0.6-3.5
	c0.4-1.4,1-2.7,1.4-4c1.2-4.1,3.3-7.8,5-11.8C259.6,303.8,258,303.1,257.6,304z M318.8,332.9c-0.1,3.3-1.2,6.4-1.4,9.7
	c0,1.3,1.9,1.2,2,0c0-0.1,0-0.2,0-0.2c0,0,0,0,0,0c0,0,0-0.1,0.1-0.1c0.1-0.2,0.1-0.4,0-0.6c0.2-2.9,1-5.8,1-8.8
	C320.5,331.8,318.8,331.8,318.8,332.9z M389.7,286.5c3.2-4,4.2-10,1.1-14.4c-1.5-2-3.6-3.7-6-4.4c-1.3-0.4-2.5-0.4-3.6-0.2
	c-7.7-6.6-15.7-12.9-22.6-20.6c-8.3-9.3-15.4-19.9-19.9-31.6c-4.9-12.8-6.8-26.5-13-38.9c-5.9-11.8-14.2-22.3-24.8-30.1
	c-19.8-14.5-46.3-14.3-68.4-5.2c-11.2,4.6-21,11.5-27.9,21.5c-7.5,10.9-10.5,24-14.7,36.3c-2.6,7.6-5.4,15.1-9,22.3
	c-3.5,7.1-8.2,13.6-13.1,19.8c-4.8,6.1-10,11.9-15.7,17.1c-3.4,3.2-7.6,7.6-12.3,9.9c-2-0.3-3.8-1.1-5.9-0.8
	c-2.4,0.3-4.8,1.6-6.6,3.3c-3.5,3.5-3.9,8.4-2,12.8c1.9,4.3,5.9,7.2,10.3,8.5c0.7,0.2,1.3,0.4,2,0.5c-1.5,1.8-2.6,4.1-3.2,6.4
	c-1.6,5.7-1.2,12.5,1.1,17.9c3.1,7.7,9.6,13.4,16.5,17.7c8.4,5.2,17.8,9,27,12.2c10.2,3.4,20.9,6.5,31.5,8.2
	c9.2,1.5,19.5,2.2,28.5-0.7c8-2.6,15.5-8.8,16-17.7c0-0.5,0-0.9,0-1.4c1,0.1,2,0.1,3,0.2c2.9,0.2,5.7,0.9,8.6,1.2c0.1,0,0.2,0,0.3,0
	c0.3,6.1,4.3,11.5,9.7,14.9c7.8,4.8,17.9,5.2,26.8,4.5c10.7-0.9,21.2-3.7,31.4-6.6c10-2.9,19.8-6.6,29.1-11.3
	c7.7-3.9,15.3-9,20.1-16.5c3.8-6,5-13.4,3.9-20.4c-0.6-3.5-2.2-7.2-4.7-9.6C385.7,290.4,387.9,288.9,389.7,286.5z M378.1,316.8
	c-1.1,1.7-2.4,3.3-3.9,4.7c0-0.3,0-0.6,0.1-0.9c0.2-1.9,0.5-3.8,0.8-5.7c0.2-1.1-1.4-1.5-1.6-0.5c-0.5,2.7-1.5,6-1.4,9
	c-2,1.7-4.2,3.1-6.4,4.4c0.2-0.2,0.4-0.6,0.3-0.9c-1-3,0.8-7.5,2.4-10.1c0.5-0.9-0.8-1.6-1.4-0.8c-1.7,2.6-5,8.9-2.6,11.8
	c0.2,0.3,0.6,0.3,0.9,0.2c-1.3,0.8-2.6,1.5-4,2.2c-0.5,0.3-1,0.5-1.5,0.8c0.2-0.4,0.2-0.8,0-1.3c0.3-4.1,1.5-7.9,2.5-11.9
	c0.2-0.9-1.1-1.2-1.3-0.4c-1.5,4.5-3.4,8.8-3.5,13.5c0,0.4,0.2,0.7,0.5,0.9c-2.9,1.4-5.9,2.7-8.9,3.8c0.6-3.2,1.5-6.2,2.5-9.3
	c0.4-1.1-1.3-1.5-1.7-0.5c-1.2,3.4-2.8,7-3.1,10.7c-2.4,0.9-4.8,1.7-7.2,2.5c-0.1-0.4-0.2-0.8-0.1-1.2c0-1.1,0.5-2.3,0.8-3.3
	c0.7-1.9,1.7-3.8,2.2-5.8c0.3-1-1.2-1.4-1.5-0.4c-0.4,1.2-4.2,8.7-3.1,11.3c-0.2,0.1-0.3,0.1-0.5,0.2c-1.8,0.6-3.6,1.1-5.4,1.7
	c0-0.1-0.1-0.2-0.1-0.4c0.4-3.2,1.6-6.3,1.6-9.6c0-1.1-1.6-1-1.6,0c-0.1,3.6-1.7,6.9-1.9,10.6c-1.4,0.4-2.8,0.8-4.2,1.2
	c-0.1-0.1-0.1-0.1-0.2-0.1c0,0,0,0,0,0c-1-5,1.7-9.5,2.5-14.5c0.2-1.1-1.4-1.5-1.6-0.5c-0.7,4.1-5.3,11.4-2.9,15.7
	c-5.8,1.6-11.9,2.9-17.8,3.6c0-0.1,0-0.1,0-0.2c-0.1-0.7,0.2-1.2,0.2-1.8c0-0.3-0.4-0.5-0.7-0.4c-0.1-2.2,0.9-4.9,1.5-6.7
	c0.3-0.9-1-1.2-1.3-0.4c-0.9,2.5-3,7.1-1.3,9.7c-1.2,0.1-2.4,0.2-3.7,0.2c0.3-0.4,0.3-0.9,0-1.4c-0.2-0.3-0.4-0.3-0.7-0.1
	c-0.4-2.3,0.5-5.4,1.5-7.2c0.5-0.8-0.8-1.5-1.3-0.7c-1.5,2.3-2.8,6.8-1.5,9.5c-2.4,0-4.8-0.2-7.2-0.6c0,0,0-0.1,0-0.1
	c-0.1-0.9,0.3-2,0.5-2.8c0.3-1.6,0.7-3.2,1.1-4.8c0.3-0.9-1.1-1.3-1.4-0.4c-0.5,1.6-0.9,3.2-1.3,4.8c-0.3,1-0.6,2-0.6,3
	c-0.7-0.1-1.5-0.3-2.2-0.5c-0.2-0.1-0.4-0.1-0.7-0.2c0-0.7,0-1.3,0.1-2c0.2-1.7,0.6-3.3,0.7-5c0-1-1.4-1-1.5,0
	c-0.1,2.2-0.9,4.3-1,6.5c-1.4-0.5-2.7-1.1-4-1.8c0.1-0.6,0.2-1.2,0.4-1.7c0.4-1.8,1.1-3.5,1.1-5.4c0-0.8-1.1-0.7-1.2,0
	c0,0.8-1.1,3.7-1.6,6.3c-3.4-2.3-5.8-5.5-4.9-9.9c1.4-7,10.3-10.2,16.2-12.3c18.8-6.6,38.4-11.1,57.6-16.5c1-0.3,0.8-1.9-0.2-1.8
	c-5.1,0.4-10.1,1-15.2,1.7c0.6-0.6,1.2-1.4,1.7-2.1c1-1.2,2-2.5,2.9-3.8c0.6-0.8-0.7-1.8-1.3-1c-1,1.3-2.2,2.5-3.3,3.8
	c-0.9,1-1.9,2-2.1,3.4c-2,0.3-4.1,0.6-6.1,1c1.2-1.9,2.3-3.9,3.3-5.9c0.6-1.2-1.2-2.2-1.8-1.1c-1.4,2.6-3.1,5.1-4.8,7.5
	c-1.9,0.4-3.8,0.8-5.7,1.2c0.1-0.2,0.2-0.3,0.3-0.5c1.5-2.7,3.4-5.3,5.2-7.9c0.7-1-0.9-1.8-1.6-0.9c-1.2,1.6-2.3,3.4-3.5,4.9
	c-0.7,0.9-1.3,1.5-1.9,2.5c-0.4,0.7-1.2,1.6-1.2,2.5c-2.2,0.5-4.3,1-6.5,1.6c0.1-0.2,0.2-0.4,0.3-0.6c1.6-3,3.8-5.7,4.9-8.9
	c0.4-1.3-1.6-1.8-2-0.6c-1.4,3.5-4.5,6-5.6,9.7c-0.1,0.4,0,0.7,0.2,1c-2.9,0.8-5.8,1.6-8.7,2.5c1.7-3.3,3-6.9,5.1-10
	c0.8-1.1-1-2.2-1.8-1.1c-2.6,3.7-5,8-6.9,12.2c-1.5,0.5-3.1,1-4.6,1.6c-1.5,0.5-3.2,1.2-4.8,1.8c1.6-3.9,3.3-7.8,5.3-11.5
	c0.6-1.2-1.1-2.2-1.8-1c-2.5,4.3-4.3,8.9-6.6,13.2c-0.2,0.3-0.4,0.6-0.6,1c-4.6,2.4-8.6,5.7-10.6,10.5c-0.1-0.1-0.3-0.1-0.4-0.2
	c0.3-0.6,0.4-1.3,0.6-2c0.7-2.2,1.4-4.4,2.2-6.6c1.8-4.7,4-9,6.4-13.4c0.3-0.5-0.4-1.2-0.9-0.7c-3.2,3.7-5.5,8.2-7.5,12.7
	c-0.9,2.1-1.7,4.3-2.5,6.4c-0.3,1-0.9,2.1-0.9,3.2c-2.4-0.2-4.7-0.4-7-0.2c0.1-0.3,0.2-0.5,0.2-0.8c0.7-1.8,1.6-3.3,2.2-5.2
	c1.4-4.4,3.1-8.7,5.1-12.8c0.5-1.1-1.1-2.1-1.7-1c-2.1,4.1-3.8,8.3-5.4,12.7c-0.8,2.2-2.6,4.8-3.1,7.4c-0.6,0.1-1.1,0.3-1.7,0.4
	c-2.4-5.5-7.9-9.4-13.4-11.8c-3.6-1.6-7.3-3-11.1-4.2c0.2-0.9,0.5-1.7,0.8-2.5c0.9-3.2,2.2-6.1,3.4-9.2c0.4-0.9-1.2-1.6-1.6-0.7
	c-1.7,3.8-3.9,7.6-4.9,11.7c-1.4-0.4-2.8-0.8-4.2-1.2c0.2-0.5,0.4-0.9,0.6-1.4c0.1-0.2-0.1-0.5-0.3-0.6c0.7-3.2,2.6-5.9,3.7-9
	c0.4-1-1.3-1.5-1.6-0.5c-1.4,3.7-4.3,6.7-4.5,10.8c-1.8-0.5-3.6-0.9-5.4-1.4c1.1-1.3,1.3-3.2,1.9-4.8c0.8-2.2,1.8-4.3,2.9-6.5
	c0.4-0.9-0.9-1.7-1.4-0.8c-1.1,2.2-2.3,4.3-3.3,6.5c-0.7,1.6-1.8,3.4-1.6,5.2c-1.3-0.3-2.5-0.6-3.8-0.9c0-0.2,0-0.3-0.2-0.5
	c0,0,0.2-0.6,0.3-0.6c0.1-0.2,0-0.3-0.1-0.4c0.7-2,1.2-4.1,2.1-6c0.4-0.8-0.8-1.6-1.2-0.7c-1.3,2.5-1.9,5.2-3.2,7.7
	c-1.5-0.4-3.1-0.7-4.6-1c0.4-2.1,1.8-4.2,2.5-6.1c0.3-0.9-1.1-1.3-1.4-0.4c-0.5,1.4-2.5,4-2.9,6.1c-1.6-0.3-3.2-0.6-4.7-0.9
	c0.3-1,0.6-1.9,1.1-2.8c0.4-0.8-0.8-1.5-1.2-0.7c-0.4,0.9-0.8,1.8-1.1,2.7c-0.1,0.2-0.2,0.4-0.2,0.6c-1-0.2-1.9-0.3-2.9-0.5
	c0.1-0.8,0.2-1.5,0.4-2.2c0.4-1.3,0.7-2.6,0.7-3.9c0-0.6-0.9-0.6-0.9,0c-0.2,1.6-1.6,3.8-2.1,5.8c-0.7-0.1-1.4-0.2-2.1-0.3
	c0,0,0-0.1,0-0.1c0.4-1.1,0.7-2.3,0.8-3.6c0-0.5-0.8-0.5-0.8,0c-0.1,1.2-0.6,2.3-1.1,3.4c0,0,0,0,0,0c-4.3-0.6-8.6-1-12.9-1.4
	c-1.1-0.1-1.2,1.5-0.2,1.8c17.4,4.9,35.1,9.1,52.3,14.7c6.6,2.1,14.3,4.2,19.1,9.5c5.4,6.1,1.3,13.1-5.1,16.1c-2,1-4.2,1.6-6.5,2.1
	c0.1-0.3,0.1-0.7,0.2-1c0.2-1,0.3-2,0.3-2.9c0-1-1.6-1-1.6,0c0,1.3-0.5,2.8-0.5,4.2c-1.4,0.2-2.8,0.3-4.2,0.4
	c0.2-0.2,0.4-0.4,0.4-0.7c0.1-1.4,0.4-2.8,1-4.1c0.4-0.9-0.9-1.7-1.4-0.8c-0.8,1.5-1.3,3.2-1.4,4.9c0,0.3,0.2,0.6,0.5,0.8
	c-1.9,0.1-3.9,0-5.8-0.1c-0.1-0.2-0.3-0.3-0.6-0.3c0.3-2.3,2.1-4.3,2.2-6.8c0-1.1-1.6-1.1-1.7,0c-0.2,2.5-2.5,4.4-2.7,6.8
	c-0.3,0-0.6-0.1-1-0.1c-0.6-0.1-1.2-0.1-1.9-0.2c0-0.5,0.1-0.9,0.1-1.3c0.2-1.2,0.4-2.5,0.9-3.6c0.4-0.9-0.9-1.7-1.3-0.8
	c-0.4,0.7-1.4,3.4-1.6,5.4c-1.7-0.2-3.3-0.5-5-0.9c0.2-2.8,0.6-5.5,1.4-8.2c0.3-1-1.2-1.3-1.5-0.4c-0.9,2.6-1.6,5.4-1.9,8.2
	c-1.9-0.4-3.8-0.9-5.6-1.3c0.4-2.4,1.1-4.7,1.9-7c0.3-1.1-1.3-1.5-1.7-0.5c-0.3,0.9-1.6,4-2.2,6.9c-2-0.5-4.1-1.1-6.1-1.7
	c0-0.2,0.1-0.4,0.1-0.6c0.3-1.8,0.9-3.6,1.3-5.4c0.2-0.9-1.1-1.2-1.3-0.4c-0.5,1.8-1.4,3.9-1.9,5.9c-1-0.3-2.1-0.6-3.1-0.9
	c0-0.5,0-1,0-1.5c0.1-2.1,0.4-4.2,0.9-6.2c0.3-1-1.2-1.4-1.5-0.4c-0.8,2.3-1.3,4.9-1.4,7.5c-1.4-0.4-2.8-0.9-4.1-1.3
	c0.1-1,0.2-2,0.3-2.5c0.2-1.7,0.7-3.5,0.7-5.3c0-0.9-1.4-0.9-1.4,0c-0.2,2.4-0.9,4.8-1.2,7.2c-2-0.7-4-1.4-6-2.2
	c0-0.9,0.1-1.9,0.3-3c0.4-1.9,1-3.7,1.6-5.5c0.3-0.9-1.1-1.3-1.4-0.4c-0.3,0.8-1.7,5-2.1,8.2c-1.8-0.7-3.7-1.5-5.5-2.3
	c0.2-3.1,1.3-6,2.3-9.2c0.3-0.9-1.1-1.3-1.4-0.4c-1,2.7-2.4,5.7-2.9,8.7c-1.6-0.8-3.2-1.5-4.8-2.4c0-1,0.2-2,0.5-2.9
	c0.6-2.1,1.5-4,2.4-5.9c0.4-0.7-0.7-1.4-1.1-0.6c-1.3,2.4-2.7,4.8-3.3,7.5c-0.1,0.3-0.1,0.7-0.2,1.1c-1-0.6-2.1-1.2-3.1-1.8
	c0.1-0.6,0.2-1.1,0.3-1.6c0.5-2.2,1.2-4.3,2-6.4c0.3-0.7-0.9-1.2-1.3-0.5c-1,2.3-2.2,4.8-2.8,7.5c-0.6-0.4-1.2-0.8-1.8-1.2
	c0.2-1.4,0.4-2.9,0.6-4.3c0.4-2.2,0.6-4.4,0.1-6.6c-0.1-0.5-0.8-0.3-0.8,0.1c-0.2,3-0.8,5.7-1.5,8.6c-0.1,0.2-0.1,0.5-0.2,0.7
	c-1-0.8-1.9-1.6-2.7-2.5c-4.3-4.3-6.7-9.8-7.1-15.9c-0.2-2.6,0-5.4,1-7.8c0.9-2.2,2.8-3.7,4.7-4.9c2.2-0.4,4.4-1,6.5-1.6
	c6.7-2,13.3-4.3,19.5-7.4c0.9-0.1,1.7-0.2,2.5-0.3c3.4-0.6,6.8-1.2,10.3-1.6c6.4-0.8,12.8-1.7,19.3-2c12.9-0.7,25.9-1.5,38.8-1.7
	c26.1-0.4,52.5,0.3,78.4,2.9c7.2,0.7,14.2,2,21.3,3.4c2.1,0.4,4.3,0.9,6.5,1.4c3.6,1.6,7.4,2.9,11.1,4.1c5,1.5,10.7,3.2,16.1,3.2
	c3.7,2.6,5.3,5.7,5.4,10.5C381.9,307.9,380.7,312.8,378.1,316.8z M185.1,275.1c8.4-6.7,14.8-15.6,20.3-24.7
	c3.5-5.9,6.2-12.3,8.8-18.6c0.9-2.2,1.8-4.4,2.6-6.7c0.1,5,0.2,10,0.4,15c0.3,7.3,0.1,14.7,0.5,22.1c0.2,3.1,0.2,6.3,0.3,9.4
	c0,0,0,0,0,0c-4,0.2-8.1,0.5-12.1,0.8C198.8,272.8,192,273.9,185.1,275.1z M294.4,263.9c-1.8,2.3-4.5,4.8-4.9,7.5
	c-0.9,0-1.8-0.1-2.7-0.1c-0.1,0-0.2,0-0.3,0c0.5-0.9,0.8-1.9,1.3-2.9c0.8-1.6,1.7-3.2,2.7-4.6c1.2-1.8,2.6-3.6,3.9-5.3
	C294.4,260.2,294.4,262,294.4,263.9z M294.5,266.7c0.1,1.6,0.2,3.3,0.4,4.9c-1.2-0.1-2.5-0.1-3.7-0.1c0.8-1.2,1.5-2.4,2.4-3.6
	C293.8,267.5,294.2,267.1,294.5,266.7z M301.7,264.2c-0.1-3.3-0.1-6.6,0-9.9c0-7.1,0.1-14.2,0.2-21.2c0-1.1,0-2.2,0-3.2
	c2.3,5.7,5,11.2,7.6,16.4c4.9,9.8,11.8,19.3,19.9,26.6c0.8,0.7,1.5,1.3,2.3,2c-1.6-0.3-3.1-0.5-4.7-0.7c-8.3-1.1-16.7-1.8-25.2-2.2
	C302.1,269.4,301.7,266.8,301.7,264.2z M382,284.3c-4.1,2.2-8.6,1.5-12.9,0.3c-4.9-1.4-9.6-3.1-14.3-5c1.3-2,2.6-3.8,4.3-5.5
	c0.8-0.8-0.4-2-1.2-1.2c-1.7,1.7-3.6,3.8-4.9,6c-1.7-0.7-3.4-1.5-5-2.4c1.4-2.2,3.2-4.1,5.1-6c0.8-0.8-0.4-2.1-1.3-1.3
	c-2,1.9-4.1,3.9-5.7,6.3c-1.4-0.8-2.8-1.6-4.2-2.5c0.3-0.6,0.7-1.2,1.1-1.7c1.3-1.9,3-3.6,4.9-4.9c0.9-0.6,0.1-2-0.8-1.5
	c-2.2,1.3-4.1,3.1-5.7,5.2c-0.4,0.5-0.9,1.1-1.3,1.7c-1-0.7-2-1.5-3-2.2c1.4-3.1,3.6-6.4,6.6-8.1c1-0.5,0.1-2-0.9-1.5
	c-2.9,1.5-6.2,4.9-7.4,8.2c-1-0.9-2-1.8-3-2.7c0.8-0.4,1.3-1.2,1.9-1.8c0.7-0.7,1.3-1.2,2-2c1.6-1.8,3.6-3.2,4.7-5.4
	c0.5-0.9-0.9-1.7-1.4-0.8c-1.2,2.1-3.5,3.8-5.2,5.5c-1,1-2.6,1.9-3.1,3.3c0,0,0,0,0,0c-1-1-1.9-2-2.8-3.1c0.5-0.6,0.9-1.3,1.4-1.9
	c2.2-2.3,4.8-3.7,6.3-6.6c0.5-0.9-0.9-1.8-1.4-0.8c-1.6,2.9-4.6,4.1-6.8,6.5c-0.3,0.3-0.6,0.7-1,1.1c-0.7-0.9-1.4-1.7-2-2.6
	c1.1-1,2-2.4,2.7-3.2c1.8-2.3,3.9-4.2,5.8-6.3c0.6-0.7-0.3-1.6-1-1c-2,1.9-4.2,3.5-6.1,5.6c-0.8,0.9-1.6,1.7-2.4,2.6
	c-0.2,0.2-0.3,0.3-0.5,0.5c-0.7-1-1.5-2.1-2.2-3.2c0.2-0.3,0.3-0.6,0.5-0.9c0.7-1.1,1.6-2,2.5-2.9c1.6-1.7,3.3-3.2,4.9-4.8
	c0.7-0.7-0.3-1.7-1-1c-2,1.8-4,3.5-6,5.3c-0.8,0.7-1.5,1.5-2.2,2.4c-0.8-1.2-1.5-2.5-2.2-3.7c0.4-0.6,1-1.2,1.5-1.7
	c1.5-1.5,3.3-2.7,4.5-4.5c0.5-0.8-0.7-1.4-1.2-0.7c-0.6,0.9-4,3-5.8,5.1c-0.4-0.7-0.8-1.5-1.2-2.2c-0.1-0.2-0.2-0.3-0.2-0.5
	c1.7-2.2,4-3.7,5.6-5.9c0.6-0.7-0.7-1.7-1.3-1c-1.5,1.9-3.8,3.2-5.4,4.9c-0.5-1-1.1-2-1.6-3c2.2-2.7,4.8-4.8,7.5-6.9
	c0.7-0.5-0.2-1.7-0.9-1.2c-1.5,1.1-3,2.1-4.5,3.3c-1.1,0.9-2.2,1.8-3.1,2.9c-0.5-0.9-0.9-1.8-1.3-2.7c0.7-0.6,1.3-1.5,1.9-2
	c1.5-1.4,3-2.7,4.7-3.8c0.8-0.5,0.1-1.7-0.7-1.3c-1.7,1-3.3,2.2-4.8,3.5c-0.5,0.4-1.3,1-2,1.6c-0.5-1.1-1.1-2.3-1.6-3.4
	c-0.1-0.3-0.2-0.5-0.3-0.8c0.1-0.2,0.2-0.3,0.3-0.4c1.2-1.4,2.5-2.7,4.2-3.5c0.7-0.3,0.2-1.6-0.5-1.3c-1.7,0.7-3.1,1.8-4.4,3.1
	c-0.1,0.1-0.3,0.3-0.4,0.4c-0.5-1-0.9-2.1-1.4-3.1c0.4-0.5,0.7-0.9,1.1-1.3c1.7-1.8,3.4-3.5,5.1-5.2c0.6-0.6-0.3-1.5-0.9-0.9
	c-1.9,1.7-3.8,3.4-5.6,5.2c-0.1,0.1-0.3,0.3-0.4,0.4c-0.6-1.3-1.2-2.7-1.8-4c0.9-0.9,2-1.6,2.9-2.5c2.2-2.1,3.6-5.3,6.3-6.9
	c0.3-0.2,0.1-0.8-0.3-0.6c-3.2,1-5.1,4.7-7.7,6.8c-0.5,0.4-1.3,1-2,1.6c-0.1-0.2-0.2-0.3-0.3-0.5c0-0.1,0-0.2,0-0.4
	c-0.1-1.3-0.1-2.5-0.1-3.8c0.7-0.9,1.4-1.8,2.1-2.6c2.1-2.6,4.3-5.2,6.7-7.5c0.6-0.6-0.3-1.5-1-1c-2.6,2.2-4.9,4.6-7.1,7.2
	c-0.3,0.3-0.6,0.7-0.9,1c-0.1-1.5-0.2-3-0.3-4.6c0.1-0.1,0.2-0.3,0.3-0.4c1.8-2.1,3.5-4.3,4.7-6.8c0.3-0.6-0.5-1.1-0.9-0.5
	c-1.2,2-2.8,3.7-4.4,5.4c-0.2-1.1-0.4-2.1-0.6-3.2c1.3-1.7,2.6-3.3,3-5.5c0.1-0.5-0.6-1.1-1-0.6c-0.1,0-0.1,0.1-0.2,0.1
	c-0.4,0-0.4,0.6,0,0.6c-0.4,0-1.5,2.1-1.9,2.7c-0.2,0.2-0.4,0.5-0.5,0.7c-0.1-0.5-0.3-0.9-0.5-1.4c-0.4-1.1-1.9-1.1-2.3,0
	c-0.9,2.3-1.4,4.8-1.6,7.4c-0.2,0.6-0.3,1.2-0.3,1.9c0,0.1,0.1,0.2,0.1,0.3c0,0.1,0,0.2,0,0.3C290,210.1,284,217.3,281,226
	c-0.1,0.4,0.5,0.8,0.7,0.4c3.1-3.7,4.8-8.2,7.2-12.3c1.9-3.3,4.1-6.3,6.1-9.5c0,0.8,0,1.7,0,2.5c-0.1,0.3-0.1,0.5-0.1,0.8
	c0,0.1,0,0.3,0.1,0.3c0,1.3,0,2.6,0,3.9c0,0.3,0,0.6,0,0.8c-3.5,4.8-7,9.6-10.3,14.5c-3.8,5.6-8.3,11.5-10.4,18
	c-0.2,0.6,0.6,0.8,0.9,0.4c4.3-5.6,7.5-12,11.5-17.8c2.8-4.1,5.5-8.1,8.3-12.1c0,5.9-0.1,11.8-0.2,17.7c-0.1,7.1-0.3,14.2-0.3,21.2
	c0,0.1,0,0.1,0,0.2c-2.2,2.8-4.4,5.5-6.3,8.4c-1.4,2.1-3.5,5-3.7,7.7c-19.8-0.6-39.5-0.8-59.3,0c0-1.2,0-2.7,0-4
	c-0.1-3.2-0.4-6.3-0.4-9.5c-0.1-7.1-0.3-14.1-0.6-21.2c-0.5-13.6-0.7-27.7-4.1-41c-0.2-0.9-1.5-0.9-1.7,0
	c-1.3,5.1-1.7,10.2-1.7,15.4c-0.2,0.3-0.4,0.7-0.6,1c-0.7-5.2-1.6-10.4-1.9-15.6c0-0.8-1.2-0.8-1.2,0c-0.1,3.6,0,7.4,0.4,10.9
	c0.2,2.2,0.4,4.9,1.5,7c-1.4,2.9-2.7,5.9-4,8.9c-0.2-1.8-0.4-3.6-0.4-5.3c0-3.3,0.2-6.6,0.2-9.9c0-1-1.5-1-1.5,0
	c-0.1,3.6-0.5,7.3-0.6,10.9c-0.1,2.4-0.1,5.2,0.8,7.4c-1,2.2-2.1,4.4-3.1,6.6c0-1.6-0.1-3.2-0.1-4.7c0.1-3.5,0.1-7.1,0.1-10.6
	c0-0.8-1.2-0.8-1.2,0c-0.1,3.5-0.4,7.1-0.6,10.6c-0.2,2.7-0.8,6-0.2,8.7c-0.2,0.4-0.4,0.7-0.6,1.1c-0.8,1.5-1.5,2.9-2.3,4.3
	c0-1.2,0-2.4,0-3.5c0.1-3.2,0.1-6.5,0-9.7c0-0.8-1.2-0.8-1.2,0c-0.1,3.2-0.4,6.5-0.6,9.7c-0.1,2.3-0.6,4.8-0.3,7.2
	c-1,1.6-1.9,3.2-3,4.8c0-0.4,0-0.8,0-1.1c-0.1-3-0.2-6-0.4-9.1c0-0.7-1.1-0.7-1.1,0c-0.2,3-0.3,6-0.4,9.1c0,1.3-0.2,2.7-0.2,4.1
	c-1,1.5-2.1,2.9-3.2,4.3c0.2-1.1,0.6-2.2,1.3-2.9c0.8-0.9-0.5-2.1-1.3-1.3c-1.5,1.6-2.2,4.3-2,6.4c0,0.1,0,0.2,0,0.2
	c-0.3,0.3-0.5,0.7-0.8,1c-0.9,1-1.8,2-2.8,3c0-0.1-0.1-0.1-0.1-0.1c-0.1,0-0.1-0.1-0.2-0.1c-0.2-1.9,0.7-3.6,0.8-5.5
	c0-1.1-1.7-1.1-1.8,0c-0.1,2.5-1.9,4.6-0.5,7.1c0,0.1,0.1,0.1,0.2,0.2c-1.4,1.3-2.9,2.6-4.5,3.8c0.2-0.4-0.2-0.8-0.6-0.6
	c-0.3,0.2-0.6,0.4-0.9,0.6c-0.1-0.8,0.3-2.1,0.4-2.5c0.3-1.2,0.6-2.4,1-3.5c0.3-1.1-1.3-1.5-1.7-0.5c-0.6,1.7-2.7,6.7-0.9,8.5
	c-2.1,1.5-4.3,2.8-6.6,4c0,0-0.1,0-0.1,0c-0.8-2,1.4-4.9,1.5-6.9c0-1.1-1.6-1.1-1.7,0c-0.2,2.3-2.1,4.2-1.9,6.7
	c0,0.4,0.1,0.8,0.3,1.2c-0.7,0.3-1.4,0.7-2.1,1c-1.4,0.6-2.7,1.2-4.1,1.8c0.3-2.3,1.1-4.5,2.1-6.6c0.4-0.8-0.8-1.5-1.2-0.7
	c-1.3,2.5-2.4,5.2-2.6,8c-1,0.4-2,0.7-3,1.1c0-0.1,0-0.3-0.1-0.4c0.5-2.8,0.4-5.4,2.1-8c0.5-0.8-0.7-1.4-1.2-0.7
	c-1.9,2.5-3.1,6.5-2.6,9.7c0,0,0,0.1,0,0.1c-1.2,0.4-2.3,0.8-3.5,1.2c-0.3,0.1-0.6,0.2-0.8,0.3c0.2-0.5,0.3-1.2,0.4-1.8
	c0.2-1.6,0.3-3.1,0.9-4.6c0.2-0.6-0.7-1-1-0.4c-0.6,1.2-0.9,2.4-1.1,3.7c-0.2,1.2-0.7,2.4-0.7,3.6c-3.7,1.2-7.6,2.2-11.3,1.3
	c-3.7-0.9-8.4-4.1-7.7-8.6c0.4-2.8,2.5-3.9,4.9-4.5c4.3,0.8,8.4-0.3,12.3-2.8c5.5-3.6,10.5-8.1,15.2-12.6
	c9.7-9.4,18.7-20.9,24.7-33.1c6.4-12.9,10.2-26.8,14.8-40.4c3.8-11.3,10-22.1,20.1-29c18.4-12.6,46.4-17.8,66.8-6.9
	c11.4,6.1,20.3,16.2,26.7,27.3c3.4,5.9,6,12,8.1,18.5c2.1,6.8,3.5,13.8,5.8,20.5c4.5,13.2,11.7,25.3,20.7,35.8
	c9,10.4,20,21,32.7,26.8c1.2,0.5,2.4,0.2,3.3-0.6C387.9,279.3,384.9,282.8,382,284.3z M252.7,121.5c11.2,1.5,23.9,0.8,33.3-6
	c9-6.4,14-16.5,17.2-26.7c3.8-11.9,3.7-24.5-2.2-35.7c-5.2-9.8-14.1-18-24.4-22.1c-6.3-2.5-13.1-3.5-19.8-3.2
	c-6.4,0.3-13.2,1.3-18.9,4.5c-5.1,2.9-9.2,7.1-12.4,11.8c-0.4,0.5-0.8,0.9-1.1,1.4c-6.8,8.7-11.9,19.5-13.2,30.6
	c-1.4,11.9,2.8,23.3,11.2,31.8C230.7,115.9,241.5,119.9,252.7,121.5z M226.9,71.8c-2.5,4.1-4.6,8.4-6.3,12.9
	c-0.4,1.1-0.8,2.3-1.2,3.6c-0.3-1.2-0.6-2.5-0.7-3.9c0-0.2,0-0.4,0-0.5c0.6-1.8,1.3-3.6,1.9-5.4c2.3-6.5,4.5-13.1,7.2-19.5
	c0.2-0.4-0.4-0.8-0.6-0.4c-2.6,5.5-5,11.1-7.2,16.8c-0.5,1.4-1,2.8-1.5,4.2c0.1-9.4,3.8-19,8.5-27c3-5.2,6.7-9.8,11.3-13.2
	c8.1-5,19.2-5.2,28.3-3.4c19.5,3.7,34.3,22.3,31.3,42.3c-1.4,9-5.1,19.4-11.3,26.3c-1.1,1.3-2.4,2.4-3.7,3.4
	c2.4-3.6,3.9-8.3,4.9-12.1c0.3-1-1.3-1.4-1.6-0.4c-0.8,2.8-2,5.5-3.4,8.1c-1.1,2.1-2.5,4.1-3,6.4c-4.8,2.7-10.3,4-15.9,4.2
	c0.2-0.1,0.3-0.2,0.5-0.4c0.7-0.9,1.1-1.2,1.4-2.3c0.2-0.5-0.5-0.8-0.9-0.5c-0.1,0.1-0.3,0.2-0.4,0.3c0.1-2.1,0.7-4.2,1.3-6.1
	c0.8-2.6,1.8-5.7,3.6-7.8c0.6-0.7-0.4-1.8-1.1-1.1c-2,2.1-3.1,5-4.1,7.7c-1.1,2.8-2.3,6.1-2,9.2c0.1,0.5,0.3,0.8,0.7,1
	c-0.3,0-0.7,0-1,0c-7.3,0-15.1-1.4-22-4.4c0.2-0.2,0.3-0.4,0.4-0.7c0.2-0.4-0.3-0.8-0.7-0.7c-0.4,0.1-0.5,0.2-0.5,0.2
	c0,0,0.1-0.2,0-0.4c-0.1-0.4,0-1,0-1.4c0.1-1,0.2-2.1,0.4-3.1c0.9-5,2.7-10,5.1-14.4c0.4-0.8-0.8-1.5-1.2-0.7
	c-3,5.3-5.5,11.5-6.3,17.6c-0.1,0.6-0.2,1.4-0.2,2.2c-2-1.1-4-2.2-5.8-3.6c0.1-0.1,0.2-0.3,0.4-0.4c0.3-0.3,0-0.7-0.3-0.7
	c-0.1,0-0.2,0-0.3,0c0.2-6.5,4.4-11.4,5.9-17.6c0.2-1-1.2-1.4-1.5-0.4c-1.5,5.5-6.8,11.3-6.5,17.3c-1.1-1-2.2-2.1-3.2-3.2
	c0.6-1.5,0.6-3.2,0.9-4.8c0.4-1.8,0.9-3.6,1.5-5.4c1.1-3.3,2.5-6.4,3.8-9.6c0.3-0.8-1-1.1-1.3-0.4c-1.5,3.5-3.1,6.9-4.4,10.5
	c-0.8,2.3-1.9,5.3-1.8,8c-1.5-2-2.8-4.3-3.8-6.7c0,0,0,0,0,0c0.4-2.2,1-4.3,1.7-6.4c1.5-4.4,3.5-8.6,5.7-12.7
	C228.3,71.7,227.3,71.1,226.9,71.8z"/>
</svg>
